%YAML 1.1
%TAG !u! tag:unity3d.com,2011:
--- !u!114 &11400000
MonoBehaviour:
  m_ObjectHideFlags: 0
  m_CorrespondingSourceObject: {fileID: 0}
  m_PrefabInternal: {fileID: 0}
  m_GameObject: {fileID: 0}
  m_Enabled: 1
  m_EditorHideFlags: 0
  m_Script: {fileID: 11500000, guid: b3d94fcd8b9845f4ba8b36eafc16193c, type: 3}
  m_Name: fighter9
  m_EditorClassIdentifier: 
  agility: 4
  attack: 10
  health: 81
  isMale: 0
  currentHealth: 81
  defense: 5
  isActive: 0
  isReady: 0
  sleeveName: Robin
  sleeveModelPrefab: {fileID: 1950252983537970, guid: 08b3b102ac9e2204f92b23a8a0a9799c,
    type: 2}
  malePrefab: {fileID: 1548924041903560, guid: ead957a1aa46c3d4d8f60d1fabc1204c, type: 2}
  femalePrefab: {fileID: 1950252983537970, guid: 08b3b102ac9e2204f92b23a8a0a9799c,
    type: 2}
