%YAML 1.1
%TAG !u! tag:unity3d.com,2011:
--- !u!1045 &1
EditorBuildSettings:
  m_ObjectHideFlags: 0
  serializedVersion: 2
  m_Scenes:
  - enabled: 0
    path: Assets/Scenes/SampleScene.unity
    guid: 99c9720ab356a0642a771bea13969a05
  - enabled: 1
    path: Assets/Scenes/SplashScreen.unity
    guid: 0a26117cbe544e0458a44e01861e23c0
  - enabled: 1
    path: Assets/Scenes/Menu.unity
    guid: e4ab3736d2e31364a846d1902b4182f2
  - enabled: 1
    path: Assets/Scenes/Prototype/GyroTesting.unity
    guid: e7cc335b3f3f55a4b88c4d0b899f4c7d
  - enabled: 1
    path: Assets/Scenes/RewardScene/RewardEnv.unity
    guid: 103e3448719fb4f4d869a1cf2b65b98b
  - enabled: 1
    path: Assets/Scenes/RewardScene/RewardLogic.unity
    guid: c3f9d893679aa71448a1e3b7eb8b48d8
  - enabled: 1
    path: Assets/Scenes/GameOverScene.unity
    guid: 9518b37640cbe1f4088b2ba870eaa505
  - enabled: 1
    path: Assets/Scenes/RewardScene/RewardUI.unity
    guid: 5a1a979dfabea084486efe7ea1f643b4
  - enabled: 1
    path: Assets/Scenes/BuildScene/BuildLogic.unity
    guid: 52e076da9b2e31641aba860a5d242204
  - enabled: 1
    path: Assets/Scenes/LoseScene/LoseEnv.unity
    guid: 2d8718816295ea944bdd9fe554cc34a0
  - enabled: 1
    path: Assets/Scenes/FightScene.unity
    guid: 7352676919453044ab8b111ea3afe79d
  - enabled: 1
    path: Assets/Scenes/FightSceneBackground.unity
    guid: 6df9738a0a3a14e43abf777e2fa59ec8
  - enabled: 1
    path: Assets/Scenes/FightSceneUI.unity
    guid: 3a1b5c4e6877d1d44aa8b0099cf85b47
  - enabled: 1
    path: Assets/Scenes/LoseScene/LoseUI.unity
    guid: 7cc535a0b07f2324fb397f8ed23ed2b3
  - enabled: 1
    path: Assets/Scenes/BuildScene/BuildUI.unity
    guid: 093f4185b28367642ae05ee8a6cf9240
  m_configObjects: {}
